ggplot2
…
## Movies data

The data set is comprised of 651 randomly sampled movies produced and 
released before 2016. Data come from [IMDB](http://www.imdb.com/) and 
[Rotten Tomatoes](http://www.rottentomatoes.com/). The codebook is available [here](data/movies/movies.html).

.small[

```r
movies = readr::read_csv("http://bit.ly/sta323_movie_data")
movies
```

```
## # A tibble: 651 x 32
##    title title_type genre runtime mpaa_rating studio thtr_rel_year thtr_rel_month thtr_rel_day dvd_rel_year
##    <chr> <chr>      <chr>   <dbl> <chr>       <chr>          <dbl>          <dbl>        <dbl>        <dbl>
##  1 Fill… Feature F… Drama      80 R           Indom…          2013              4           19         2013
##  2 The … Feature F… Drama     101 PG-13       Warne…          2001              3           14         2001
##  3 Wait… Feature F… Come…      84 R           Sony …          1996              8           21         2001
##  4 The … Feature F… Drama     139 PG          Colum…          1993             10            1         2001
##  5 Male… Feature F… Horr…      90 R           Ancho…          2004              9           10         2005
##  6 Old … Documenta… Docu…      78 Unrated     Shcal…          2009              1           15         2010
##  7 Lady… Feature F… Drama     142 PG-13       Param…          1986              1            1         2003
##  8 Mad … Feature F… Drama      93 R           MGM/U…          1996             11            8         2004
##  9 Beau… Documenta… Docu…      88 Unrated     Indep…          2012              9            7         2013
## 10 The … Feature F… Drama     119 Unrated     IFC F…          2012              3            2         2012
## # … with 641 more rows, and 22 more variables: dvd_rel_month <dbl>, dvd_rel_day <dbl>, imdb_rating <dbl>,
## #   imdb_num_votes <dbl>, critics_rating <chr>, critics_score <dbl>, audience_rating <chr>,
## #   audience_score <dbl>, best_pic_nom <chr>, best_pic_win <chr>, best_actor_win <chr>,
## #   best_actress_win <chr>, best_dir_win <chr>, top200_box <chr>, director <chr>, actor1 <chr>, actor2 <chr>,
## #   actor3 <chr>, actor4 <chr>, actor5 <chr>, imdb_url <chr>, rt_url <chr>
```
…
