…
```{r, eval=FALSE}
system.time({
  nyc_sql %>%
    select(issue_date, issuing_agency, violation_precinct, house_number, street_name) %>%
    filter(violation_precinct >=1, violation_precinct <= 34) %>%
    group_by(issuing_agency, violation_precinct) %>%
    summarize(n=n()) %>%
    collect()
})

##   user  system elapsed 
##  5.915   0.507   6.445 

## # A tibble: 199 x 3
## # Groups:   issuing_agency [15]
##    issuing_agency violation_precinct     n
##             <chr>              <int> <int>
##  1              A                  1    13
##  2              A                  7     1
##  3              A                 10    24
##  4              A                 11     1
##  5              A                 14    47
##  6              A                 33    11
##  7              B                 25     2
##  8              C                  5    73
##  9              C                 13     7
## 10              D                  1     1
## # ... with 189 more rows
```
…
