…
##   user  system elapsed 
## 97.474  10.719 129.293 
``` 
]

---

## Problems

.small[
```{r, eval=FALSE}
readr::problems(nyc)

## # A tibble: 654,437 x 5
##      row col                  expected   actual file                                       
##    <int> <chr>                <chr>      <chr>  <chr>                                      
##  1  2647 Violation Legal Code an integer T      '/data/nyc_parking/nyc_parking_2014.csv'
##  2  3792 Violation Legal Code an integer T      '/data/nyc_parking/nyc_parking_2014.csv'
##  3  4001 Violation Legal Code an integer T      '/data/nyc_parking/nyc_parking_2014.csv'
##  4  4002 Violation Legal Code an integer T      '/data/nyc_parking/nyc_parking_2014.csv'
##  5  4003 Violation Legal Code an integer T      '/data/nyc_parking/nyc_parking_2014.csv'
##  6  4004 Violation Legal Code an integer T      '/data/nyc_parking/nyc_parking_2014.csv'
##  7  4005 Violation Legal Code an integer T      '/data/nyc_parking/nyc_parking_2014.csv'
##  8  4006 Violation Legal Code an integer T      '/data/nyc_parking/nyc_parking_2014.csv'
##  9  4019 Violation Legal Code an integer T      '/data/nyc_parking/nyc_parking_2014.csv'
## 10  4059 Violation Legal Code an integer T      '/data/nyc_parking/nyc_parking_2014.csv'
## # ... with 654,427 more rows
```
…
---

## Fixing column names

.small[
```{r eval=FALSE}
(nyc = janitor::clean_names(nyc))

## # A tibble: 9,100,278 x 43
##    summons_number plate_id registration_st… plate_type issue_date violation_code
##             <dbl> <chr>    <chr>            <chr>      <chr>               <int>
##  1     1361929741 FCJ5493  NY               PAS        12/18/1970             20
##  2     1366962000 63540MC  NY               COM        02/02/1971             46
##  3     1356906515 GFM1421  NY               PAS        09/18/1971             40
##  4     1342296217 FYM5117  NY               SRF        09/18/1971             21
##  5     1342296199 95V6675  TX               PAS        09/18/1971             21
##  6     1342296187 GCY4187  NY               SRF        09/18/1971             21
##  7     1337077380 18972BB  NY               999        10/10/1971             14
##  8     1364523796 WNJ4730  VA               PAS        04/05/1973             14
##  9     1359914924 68091JZ  NY               COM        07/22/1973             46
## 10     1355498326 EWV4127  NY               PAS        08/12/1973             21
## # ... with 9,100,268 more rows, and 37 more variables: vehicle_body_type <chr>,
## #   vehicle_make <chr>, issuing_agency <chr>, street_code1 <int>, street_code2 <int>,
## #   street_code3 <int>, vehicle_expiration_date <int>, violation_location <chr>,
## #   violation_precinct <int>, issuer_precinct <int>, issuer_code <int>,
## #   issuer_command <chr>, issuer_squad <chr>, violation_time <chr>,
## #   time_first_observed <chr>, violation_county <chr>,
## #   violation_in_front_of_or_opposite <chr>, house_number <chr>, street_name <chr>,
## #   intersecting_street <chr>, date_first_observed <int>, law_section <int>,
## #   sub_division <chr>, violation_legal_code <int>, days_parking_in_effect <chr>,
…
---

## Simplifying 

There is a lot of variables we won't care about for the time being, so lets make life easier by selecting a subset of columns.

.small[
```{r eval=FALSE}
(nyc_trim = nyc %>% 
  select(registration_state:issuing_agency, 
         violation_location, violation_precinct, violation_time,
         house_number:intersecting_street, vehicle_color))

## # A tibble: 9,100,278 x 14
##    registration_st… plate_type issue_date violation_code vehicle_body_ty… vehicle_make
##    <chr>            <chr>      <chr>               <int> <chr>            <chr>       
##  1 NY               PAS        12/18/1970             20 SUBN             GMC         
##  2 NY               COM        02/02/1971             46 DELV             FRUEH       
##  3 NY               PAS        09/18/1971             40 SDN              MAZDA       
##  4 NY               SRF        09/18/1971             21 SUBN             NISSA       
##  5 TX               PAS        09/18/1971             21 NA               GMC         
##  6 NY               SRF        09/18/1971             21 VAN              FORD        
##  7 NY               999        10/10/1971             14 BUS              INTER       
##  8 VA               PAS        04/05/1973             14 SDN              TOYOT       
##  9 NY               COM        07/22/1973             46 DELV             TOYOT       
## 10 NY               PAS        08/12/1973             21 SUBN             ACURA       
## # ... with 9,100,268 more rows, and 8 more variables: issuing_agency <chr>,
## #   violation_location <chr>, violation_precinct <int>, violation_time <chr>,
## #   house_number <chr>, street_name <chr>, intersecting_street <chr>,
## #   vehicle_color <chr>
```
…
---

## Clean data?

How many different car colors are in this data set?

--

.pull-left[ .small[
```{r eval=FALSE}
nyc %>% 
  count(vehicle_color) %>% 
  arrange(desc(n))

## # A tibble: 2,891 x 2
##    vehicle_color       n
##    <chr>           <int>
##  1 WHITE         1348510
##  2 GY            1214213
##  3 WH            1192609
##  4 BK             941007
##  5 BLACK          665194
##  6 BL             442368
##  7 GREY           417142
##  8 SILVE          313770
##  9 BLUE           301119
## 10 RD             272772
## # ... with 2,881 more rows
```
] ]

.pull-right[ .small[
```{r eval=FALSE}
nyc %>% 
  count(vehicle_color)


## # A tibble: 2,891 x 2
##    vehicle_color     n
##    <chr>         <int>
##  1 -                 5
##  2 --                2
##  3 ---               1
##  4 ----              1
##  5 -----             1
##  6 -.                1
##  7 ,                 1
##  8 ,.A               1
##  9 ,.J.,             1
## 10 ,SILV             2
## # ... with 2,881 more rows
```
…
## [1] "POSIXct" "POSIXt"

head(nyc$issue_date)

## [1] "1970-12-18 EST" "1971-02-02 EST" "1971-09-18 EDT" "1971-09-18 EDT" "1971-09-18 EDT" "1971-09-18 EDT"
```

---

.small[
```{r, eval=FALSE}
nyc

## # A tibble: 9,100,278 x 43
##    summons_number plate_id registration_st… plate_type issue_date         
##             <dbl> <chr>    <chr>            <chr>      <dttm>             
##  1     1361929741 FCJ5493  NY               PAS        1970-12-18 00:00:00
##  2     1366962000 63540MC  NY               COM        1971-02-02 00:00:00
##  3     1356906515 GFM1421  NY               PAS        1971-09-18 00:00:00
##  4     1342296217 FYM5117  NY               SRF        1971-09-18 00:00:00
##  5     1342296199 95V6675  TX               PAS        1971-09-18 00:00:00
##  6     1342296187 GCY4187  NY               SRF        1971-09-18 00:00:00
##  7     1337077380 18972BB  NY               999        1971-10-10 00:00:00
##  8     1364523796 WNJ4730  VA               PAS        1973-04-05 00:00:00
##  9     1359914924 68091JZ  NY               COM        1973-07-22 00:00:00
## 10     1355498326 EWV4127  NY               PAS        1973-08-12 00:00:00
## # ... with 9,100,268 more rows, and 38 more variables: violation_code <int>,
## #   vehicle_body_type <chr>, vehicle_make <chr>, issuing_agency <chr>,
## #   street_code1 <int>, street_code2 <int>, street_code3 <int>,
## #   vehicle_expiration_date <int>, violation_location <chr>,
## #   violation_precinct <int>, issuer_precinct <int>, issuer_code <int>,
## #   issuer_command <chr>, issuer_squad <chr>, violation_time <chr>,
## #   time_first_observed <chr>, violation_county <chr>,
## #   violation_in_front_of_or_opposite <chr>, house_number <chr>,
## #   street_name <chr>, intersecting_street <chr>, date_first_observed <int>,
…
---

.small[
```{r, eval=FALSE}
filter(nyc, issue_date >= mdy("1/1/2013"), issue_date <= mdy("12/31/2014"))

## # A tibble: 9,095,621 x 43
##    Summons_Number Plate_ID registration_state Plate_Type issue_date Violation_Code Vehicle_Body_Type
##             <dbl>    <chr>              <chr>      <chr>     <dttm>          <int>             <chr>
##  1     1354300671   S28CMN                 NJ        PAS 2013-01-01             20              SUBN
##  2     1349345910   XTX057                 MI        PAS 2013-01-01             99               SDN
##  3     1268869855  GJK5565                 NY        PAS 2013-01-01             20              SUBN
##  4     1268869843  EPS8803                 NY        PAS 2013-01-01             20               SDN
##  5     1365149122  FWZ5341                 NY        SRF 2013-01-01             20               SDN
##  6     1364348044  EPE8859                 NY        PAS 2013-01-01             46              SUBN
##  7     1364348032  ERT3706                 NY        PAS 2013-01-01             62               SDN
##  8     1364838760  DPA3951                 NY        PAS 2013-01-01             98               SDN
##  9     1364832835  ETS1289                 NY        PAS 2013-01-01             71               SDN
## 10     1364805819  FGE4351                 NY        PAS 2013-01-01             71              SUBN
## # ... with 9,095,611 more rows, and 36 more variables: Vehicle_Make <chr>, issuing_agency <chr>,
## #   Street_Code1 <int>, Street_Code2 <int>, Street_Code3 <int>, Vehicle_Expiration_Date <int>,
## #   violation_location <chr>, violation_precinct <int>, Issuer_Precinct <int>, Issuer_Code <int>,
## #   Issuer_Command <chr>, Issuer_Squad <chr>, violation_time <chr>, Time_First_Observed <chr>,
## #   Violation_County <chr>, Violation_In_Front_Of_Or_Opposite <chr>, house_number <chr>, street_name <chr>,
## #   intersecting_street <chr>, Date_First_Observed <int>, Law_Section <int>, Sub_Division <chr>,
## #   Violation_Legal_Code <int>, Days_Parking_In_Effect <chr>, From_Hours_In_Effect <chr>,
## #   To_Hours_In_Effect <chr>, vehicle_color <chr>, `Unregistered_Vehicle?` <int>, Vehicle_Year <int>,
## #   Meter_Number <chr>, Feet_From_Curb <int>, Violation_Post_Code <chr>, Violation_Description <chr>,
…
nyc

## # A tibble: 9,095,621 x 47
##    summons_number plate_id registration_st… plate_type issue_date          violation_code
##             <dbl> <chr>    <chr>            <chr>      <dttm>                       <int>
##  1     1354300671 S28CMN   NJ               PAS        2013-01-01 00:00:00             20
##  2     1349345910 XTX057   MI               PAS        2013-01-01 00:00:00             99
##  3     1268869855 GJK5565  NY               PAS        2013-01-01 00:00:00             20
##  4     1268869843 EPS8803  NY               PAS        2013-01-01 00:00:00             20
##  5     1365149122 FWZ5341  NY               SRF        2013-01-01 00:00:00             20
##  6     1364348044 EPE8859  NY               PAS        2013-01-01 00:00:00             46
##  7     1364348032 ERT3706  NY               PAS        2013-01-01 00:00:00             62
##  8     1364838760 DPA3951  NY               PAS        2013-01-01 00:00:00             98
##  9     1364832835 ETS1289  NY               PAS        2013-01-01 00:00:00             71
## 10     1364805819 FGE4351  NY               PAS        2013-01-01 00:00:00             71
## # ... with 9,095,611 more rows, and 41 more variables: vehicle_body_type <chr>, vehicle_make <chr>,
## #   issuing_agency <chr>, street_code1 <int>, street_code2 <int>, street_code3 <int>,
## #   vehicle_expiration_date <int>, violation_location <chr>, violation_precinct <int>,
## #   issuer_precinct <int>, issuer_code <int>, issuer_command <chr>, issuer_squad <chr>,
## #   violation_time <chr>, time_first_observed <chr>, violation_county <chr>,
## #   violation_in_front_of_or_opposite <chr>, house_number <chr>, street_name <chr>,
## #   intersecting_street <chr>, date_first_observed <int>, law_section <int>, sub_division <chr>,
## #   violation_legal_code <int>, days_parking_in_effect <chr>, from_hours_in_effect <chr>,
## #   to_hours_in_effect <chr>, vehicle_color <chr>, unregistered_vehicle <int>, vehicle_year <int>,
…
